﻿Task ID,Created At,Completed At,Last Modified,Name,Section/Column,Assignee,Assignee Email,Start Date,Due Date,Tags,Notes,Projects,Parent task,Blocked By (Dependencies),Blocking (Dependencies),ID,Prioridad
1206958938513253,2024-03-29,,2024-03-29,Seleccionar Perfiles,To do,,,,2024-03-31,,,Modulo de Fidelización ,,,,PL-001,Alta
1206958938513258,2024-03-29,,2024-03-29,Administrar Campaña ,To do,,,,2024-03-31,,,Modulo de Fidelización ,,,,PL-002,Alta
1206958938513260,2024-03-29,,2024-03-29,Administrar elementos de campaña ,To do,,,,2024-03-31,,,Modulo de Fidelización ,,,,PL-003,Alta
1206958938513262,2024-03-29,,2024-03-29,Agregar evento,To do,,,,2024-03-31,,,Modulo de Fidelización ,,,,PL-004,Alta
1206958938513264,2024-03-29,,2024-03-29,Generar lista de direcciones ,To do,,,,2024-03-31,,,Modulo de Fidelización ,,,,PL-005,Baja
1206958938513266,2024-03-29,,2024-03-29,Generar Cupones,To do,,,,2024-03-31,,,Modulo de Fidelización ,,,,PL-006,Media
1206958938513268,2024-03-29,,2024-03-29,Ver beneficios,To do,,,,2024-03-31,,,Modulo de Fidelización ,,,,PL-007,Baja
1206958938513270,2024-03-29,,2024-03-29,Redimir Beneficios,To do,,,,2024-03-31,,,Modulo de Fidelización ,,,,PL-008,Media
1206958938513272,2024-03-29,,2024-03-29,Generar informes de capaña,To do,,,,2024-03-31,,,Modulo de Fidelización ,,,,PL-009,Alta